RV1250
RV2384
RV3576
RV2387
RV2123
RV0884C
RV3399
RV2621C
RV2378C
RV3398C
RV2622
RV2428
RV3839
RV1249C
RV1519
RV3575C
RV0112
RV0452
RV3402C
RV2383C
RV3838C
RV2381C
RV0481C
RV2733C
RV3020C
RV0451C
RV3840
RV2379C
RV1344
RV2377C
RV1348
RV2734
RV1847
RV1347C
RV0885
RV2122C
RV2386C
RV0342
RV1846C
RV2382C
RV0482
RV3403C
RV2380C
RV0282