RV2920C
RV3053C
RV2576C
RV2368C
RV1310
RV1332
RV3212
RV0931C
RV2941
RV2942
RV2327
RV1185C
RV1416
RV0241C
RV2460C
RV0560C
RV1627C
RV3284
RV2590
RV2392
RV2393
RV2109C
RV3173C
RV2010
RV2369C
RV3244C
RV0411C
RV2553C
RV2711
RV3868
RV3408
RV2204C
RV3869
RV2935
RV1925
RV2097C
RV1846C